…
### Forensics API

The [Forensics API](https://projects.propublica.org/forensics/api.html)
functionality includes two functions: `geos`, to return data for a
specific state, and `systems`, to return detailed data and statistics
about specified medical examiner (or coroner) system.

``` r
library("RPublica")
g <- geos()

tibble::as_tibble(g)
#> # A tibble: 80 x 15
#>    geo.ar_associat~ geo.cached_slug geo.coroner_sys~ geo.created_at geo.district
#>               <int> <chr>           <chr>            <chr>          <lgl>       
#>  1                1 ak              none             2011-05-04T12~ NA          
#>  2                2 ar              county           2011-05-04T12~ NA          
#>  3                3 ct              none             2011-05-04T12~ NA          
#>  4                4 de              none             2011-05-04T12~ NA          
#>  5                5 dc              none             2011-05-04T12~ NA          
#>  6                6 ky              county           2011-05-04T12~ NA          
#>  7                7 me              none             2011-05-04T12~ NA          
#>  8                8 md              none             2011-05-04T12~ NA          
#>  9                9 ma              none             2011-05-04T12~ NA          
#> 10               10 mt              county           2011-05-04T12~ NA          
#> # ... with 70 more rows, and 10 more variables: geo.id <int>, geo.kind <chr>,
#> #   geo.medical_examiner_system <chr>, geo.name <chr>, geo.note <lgl>,
#> #   geo.population <lgl>, geo.postal_abbreviation <chr>, geo.updated_at <chr>,
#> #   geo.system_types.medical_examiner_system <chr>,
#> #   geo.system_types.coroner_system <chr>
```
### Free the Files

The [Free the Files
API](https://projects.propublica.org/free-the-files/api) functionality
includes four functions: `market` (for retrieving available markets, or
a specific market), `station` (for retrieving station-specific
data`,`committee`(for retrieving sponsoring committees, or a specific such committee), and`filing\`
(for retrieving details of a specific filing). A codebook describing the
values returned by each function is available at:
<https://projects.propublica.org/free-the-files/api>.

``` r
library("RPublica")
tibble::as_tibble(market())
#> # A tibble: 33 x 5
#>    market.name   market.slug  market.titleized~ market.filings_~ market.freed_ct
#>    <chr>         <chr>        <chr>                        <int>           <int>
#>  1 NEW YORK      new-york     New York                       475             127
#>  2 PHILADELPHIA  philadelphia Philadelphia                   718             642
#>  3 BOSTON (MANC~ boston-manc~ Boston and Manch~             1736             726
#>  4 WASHINGTON D~ washington-~ Washington, D.C.~              988             626
#>  5 ATLANTA       atlanta      Atlanta                          4               0
#>  6 DETROIT       detroit      Detroit                        658             420
#>  7 PHOENIX (PRE~ phoenix-pre~ Phoenix and Pres~             1331             869
#>  8 TAMPA-ST. PE~ tampa-st-pe~ Tampa, St. Peter~             2687             527
#>  9 MINNEAPOLIS-~ minneapolis~ Minneapolis-St. ~             1429             815
#> 10 MIAMI-FT. LA~ miami-ft-la~ Miami and Ft. La~              564             129
#> # ... with 23 more rows
…
